768
Lattice="35.05836369885042 0.0 0.0 23.327434177700045 33.0435499978115 0.0 11.747041420989298 -8.29759663614823 42.964702017346795" Properties=species:S:1:pos:R:3 pbc="T T T"
I        4.80842152       2.69822563       0.71607021
I        7.72117359       6.83964041       0.74055269
I       10.64463399      10.96669864       0.73852572
I       13.54750641      15.09964825       0.73966249
I       16.47380931      19.23445773       0.73326063
I       19.38920491      23.35134990       0.73707034
I       22.30051924      27.48809392       0.72733815
I       25.20829738      31.62147754       0.72750229
I        9.16466856       2.72016392       0.72929164
I       12.09592543       6.86042807       0.72289610
I       14.99735568      10.98128505       0.74392461
I       17.92152667      15.11683143       0.73278164
I       20.83627090      19.24265649       0.74396160
I       23.75629093      23.36876342       0.73342412
I       26.66485664      27.49771234       0.72822060
I       29.58144875      31.63819772       0.72333403
I       13.56828048       2.70375388       0.72321222
I       16.47624078       6.83268561       0.72797114
I       19.40805944      10.97131590       0.71635654
I       22.31805012      15.09454988       0.73346754
I       25.23910095      19.21835534       0.73623280
I       28.13854838      23.35395960       0.72630539
I       31.07273594      27.49049157       0.71419304
I       33.98226302      31.62927731       0.72894514
I       17.92488792       2.70911699       0.73288126
I       20.85766437       6.84880279       0.70985594
I       23.76172024      10.97907999       0.73932989
I       26.68349630      15.11420292       0.71434694
I       29.59962877      19.23386342       0.73534687
I       32.51516207      23.37118168       0.72919191
I       35.42543686      27.50155077       0.73306790
I       38.35520579      31.64091641       0.72254309
I       22.34531413       2.70570178       0.73437716
I       25.24392175       6.83757318       0.72517499
I       28.17321480      10.94812058       0.72477188
I       31.07198381      15.08577924       0.73837093
I       34.00877948      19.22414260       0.73140998
I       36.91583648      23.37173854       0.74312221
I       39.83970232      27.48706137       0.73208973
I       42.74021818      31.62208934       0.72970427
I       26.69257080       2.70797042       0.73063322
I       29.61461395       6.84827494       0.71216022
I       32.53424819      10.97670924       0.73230682
I       35.44612495      15.11801002       0.71691634
I       38.34935970      19.23653050       0.74318367
I       41.29234887      23.38287719       0.72508682
I       44.18358031      27.49357594       0.73419657
I       47.11751349      31.62814661       0.72981858
I       31.10663713       2.70586634       0.71605582
I       34.01764043       6.83132741       0.74536294
I       36.93025965      10.96239513       0.71794024
I       39.84830793      15.09360633       0.73417043
I       42.77129530      19.23854516       0.72771235
I       45.66827106      23.36147759       0.74600966
I       48.61010749      27.49458286       0.72238300
I       51.50972042      31.62880272       0.72635358
I       35.45312642       2.71083634       0.71996087
I       38.38508389       6.85573514       0.72448675
I       41.28667628      10.98145042       0.73327508
I       44.21440494      15.12120974       0.73530907
I       47.11369104      19.23942364       0.73041490
I       50.05523534      23.37567570       0.71506816
I       52.95320953      27.49759530       0.73597494
I       55.88308017      31.61976878       0.72206563
I        3.34272366       0.62765408       4.32820837
I        6.27548767       4.78090840       4.32497862
I        9.16475551       8.88869718       4.32340290
I       12.10137980      13.04993892       4.31551715
I       15.00474702      17.15703024       4.32885965
I       17.93892521      21.29116300       4.32463899
I       20.83283261      25.41572022       4.32782335
I       23.76823727      29.54731514       4.32330781
I        7.72384694       0.64332641       4.31843577
I       10.63589919       4.77937430       4.31736856
I       13.57000515       8.91444488       4.31616687
I       16.44853112      13.02859449       4.32741619
I       19.39760876      17.18304177       4.31522298
I       22.29748407      21.29968593       4.32497528
I       25.23106638      25.43373114       4.31432383
I       28.12604610      29.56412138       4.32844297
I       12.10548861       0.63809836       4.33138184
I       15.04124294       4.78063604       4.30729566
I       17.93228825       8.89744019       4.32997221
I       20.86981058      13.03220162       4.32907634
I       23.76311678      17.16220725       4.32556562
I       26.71081998      21.28633389       4.32137042
I       29.61362190      25.40863704       4.32383168
I       32.53556894      29.56253920       4.32752326
I       16.48513356       0.65643986       4.31503924
I       19.38784883       4.77722141       4.32361662
I       22.32485593       8.91998186       4.31812405
I       25.21577441      13.02402693       4.32466890
I       28.15836237      17.16925280       4.32241440
I       31.06099797      21.30296451       4.32831366
I       33.99068808      25.43508394       4.32336825
I       36.88626977      29.54848616       4.33257626
I       20.87143387       0.64652622       4.32186172
I       23.80147300       4.77468432       4.31640770
I       26.70378740       8.89523572       4.33409374
I       29.63469236      13.02100271       4.32074624
I       32.53291369      17.15740886       4.33015958
I       35.47353076      21.29297512       4.30548910
I       38.37295007      25.42462391       4.32146379
I       41.29575611      29.56161276       4.31138539
I       25.25886769       0.65312377       4.31954862
I       28.15422016       4.77663195       4.33553777
I       31.09050717       8.90325124       4.32677813
I       33.99205432      13.04188058       4.33638179
I       36.92049095      17.17183800       4.32319667
I       39.82931978      21.30005056       4.33037113
I       42.76360594      25.43557718       4.32664856
I       45.65771408      29.55928537       4.31784077
I       29.63623830       0.63099942       4.31952427
I       32.56697379       4.76637924       4.31665024
I       35.46265898       8.89039995       4.32946514
I       38.39992193      13.03567716       4.34102464
I       41.29728311      17.15449571       4.33201954
I       44.23463012      21.30638128       4.30601809
I       47.13026369      25.42431503       4.32460642
I       50.04916263      29.55107390       4.31880911
I       34.01588090       0.64933282       4.33265947
I       36.91311472       4.77534409       4.32882515
I       39.85831737       8.90582453       4.31640314
I       42.75555600      13.05013568       4.32729015
I       45.68741924      17.16471039       4.32775932
I       48.58153552      21.30649885       4.33669423
I       51.53345708      25.44797599       4.32884235
I       54.42374447      29.54920993       4.34090246
I        1.90100998      -1.42954297       7.88460247
I        4.80585051       2.69619703       7.89659340
I        7.73492524       6.83336694       7.88421440
I       10.63778487      10.95663605       7.90923036
I       13.56791709      15.10021241       7.89398839
I       16.47518119      19.22920583       7.90243532
I       19.40188003      23.35776431       7.89925802
I       22.31042659      27.48059625       7.90005956
I        6.26322446      -1.42797012       7.88029532
I        9.19066014       2.70803511       7.88694971
I       12.08258997       6.84371185       7.90376316
I       15.02490897      10.96849506       7.89706805
I       17.93527035      15.09633607       7.90426142
I       20.85774674      19.22682838       7.89445103
I       23.75864746      23.36221576       7.89237566
I       26.68780061      27.50072007       7.88329456
I       10.66643732      -1.43894469       7.87693453
I       13.57636449       2.69703710       7.89327374
I       16.49523999       6.84324723       7.88314900
I       19.39239551      10.95693057       7.88873797
I       22.32078696      15.08670302       7.87530530
I       25.24052984      19.22405425       7.89094425
I       28.16618998      23.35042144       7.87902648
I       31.08033339      27.48070474       7.88371335
I       15.02823225      -1.42369294       7.88874582
I       17.96210132       2.71389160       7.88498708
I       20.85878324       6.83561853       7.89088834
I       23.78532677      10.97268267       7.87534486
I       26.69040596      15.10313774       7.90515112
I       29.61528504      19.22284752       7.88044528
I       32.52402512      23.35677487       7.89361064
I       35.44536737      27.49417661       7.88727220
I       19.42134446      -1.42789761       7.88668025
I       22.33738354       2.70058259       7.88856778
I       25.26502274       6.82771182       7.88316864
I       28.16767652      10.95772823       7.88799922
I       31.08387738      15.09864308       7.89073985
I       34.00727407      19.22117152       7.88863143
I       36.92933880      23.34093460       7.89154607
I       39.84323373      27.49237149       7.89344533
I       23.80206786      -1.41823386       7.90051426
I       26.71171291       2.70432068       7.89081387
I       29.62800979       6.83625347       7.89580805
I       32.54083241      10.96655323       7.87969950
I       35.45147531      15.10484975       7.89593267
I       38.38705358      19.23624210       7.89462470
I       41.28117145      23.37240907       7.88988673
I       44.21644969      27.49129967       7.89227460
I       28.18481277      -1.42785685       7.90909744
I       31.09679638       2.69578269       7.88589434
I       34.02566755       6.83384076       7.88333659
I       36.93156293      10.95540390       7.89806991
I       39.85912611      15.09286010       7.88296147
I       42.76919681      19.21087794       7.90768034
I       45.69765803      23.36057156       7.88521296
I       48.59616050      27.48786483       7.88205672
I       32.56798425      -1.42975967       7.88661857
I       35.48469776       2.71238161       7.88378225
I       38.39119691       6.82595323       7.88772912
I       41.31191763      10.96738474       7.88903596
I       44.21724107      15.11033943       7.89129752
I       47.14413310      19.22725896       7.88773851
I       50.05323272      23.35789121       7.89535515
I       52.97456954      27.49070402       7.88682292
I        7.73075072       0.65070354      11.48042098
I       10.65347615       4.75662037      11.47705398
I       13.54878345       8.90435942      11.49531040
I       16.47045033      13.02483196      11.48334433
I       19.37772006      17.16055422      11.48288112
I       22.32533047      21.29761793      11.48116708
I       25.21230367      25.43122568      11.48595523
I       28.14168440      29.56142553      11.47938387
I       12.12566398       0.65439102      11.48600758
I       15.02909558       4.74980849      11.48928233
I       17.96942944       8.89591452      11.48009901
I       20.86101511      13.01747797      11.49049754
I       23.79993105      17.15526241      11.49621901
I       26.69430175      21.28402967      11.48587500
I       29.63434432      25.42437396      11.48536623
I       32.53355799      29.53523489      11.48411800
I       16.49633556       0.64772171      11.47394870
I       19.40612513       4.76900391      11.47863686
I       22.30901561       8.90902805      11.47620598
I       25.23984474      13.03797220      11.48421876
I       28.13760614      17.16133831      11.47867767
I       31.08142844      21.30840718      11.49526628
I       33.97227802      25.43234259      11.48043770
I       36.91359062      29.54159841      11.48629601
I       20.88493177       0.63580976      11.48064945
I       23.79111922       4.75451060      11.49246432
I       26.72147096       8.88581146      11.48771136
I       29.62908217      13.01197466      11.48632797
I       32.56649048      17.15472655      11.48680737
I       35.45834465      21.28639825      11.47734819
I       38.38274082      25.42490869      11.47761941
I       41.28692965      29.54659685      11.48793344
I       25.26224836       0.64310330      11.48665456
I       28.16808113       4.78475016      11.49617289
I       31.08478010       8.89400481      11.48174363
I       34.00745157      13.02979730      11.48589095
I       36.91190410      17.17306991      11.48232579
I       39.85091816      21.28729500      11.48313215
I       42.75440050      25.42465792      11.47908169
I       45.67931443      29.56048974      11.48543174
I       29.63909033       0.61900647      11.47722530
I       32.56022722       4.75144384      11.47804590
I       35.48545575       8.89511682      11.48390570
I       38.38750517      13.02157500      11.49435790
I       41.33113106      17.16217446      11.48818326
I       44.22881638      21.28468375      11.48106380
I       47.14992009      25.41235493      11.49301753
I       50.06926658      29.55198949      11.48042504
I       34.01572355       0.65462967      11.49229681
I       36.93218189       4.76772937      11.48308355
I       39.84265827       8.90709236      11.48722162
I       42.77212288      13.02494845      11.48214279
I       45.67707350      17.16269413      11.48959461
I       48.61392129      21.30522853      11.48125062
I       51.52697902      25.41303616      11.49379754
I       54.43303657      29.55858653      11.48790482
I       38.41524441       0.63577893      11.48915513
I       41.32259270       4.75608429      11.49443805
I       44.25698032       8.89971807      11.48071478
I       47.14617602      13.01020976      11.48707226
I       50.08791811      17.16106971      11.48221761
I       52.98667394      21.28568753      11.48065878
I       55.91728559      25.42099169      11.48078093
I       58.82144875      29.53047592      11.48004182
I        6.26617379      -1.41390278      15.05145276
I        9.17047405       2.69587061      15.04000232
I       12.09688432       6.83144674      15.06103730
I       15.01528798      10.96682804      15.04662693
I       17.93554832      15.10575214      15.05323046
I       20.85710036      19.22710328      15.05160020
I       23.77962203      23.35366807      15.04962061
I       26.68927535      27.48137263      15.04524280
I       10.66739902      -1.42994970      15.04171012
I       13.57563447       2.69617531      15.02896699
I       16.48408725       6.82375183      15.05607687
I       19.40932400      10.95372207      15.04198014
I       22.33144897      15.08499331      15.05623250
I       25.24333962      19.22185171      15.03674398
I       28.17266476      23.34898408      15.05752274
I       31.07948428      27.48822794      15.03783902
I       15.04145565      -1.42867935      15.04989450
I       17.93742243       2.70446489      15.05194006
I       20.86950819       6.83170392      15.05453355
I       23.77844272      10.97103770      15.04795520
I       26.70089462      15.09138531      15.04811659
I       29.61692395      19.22804816      15.04926748
I       32.52632670      23.36229898      15.03970171
I       35.44766198      27.48503806      15.04609555
I       19.43233958      -1.42997808      15.04765471
I       22.34916538       2.69605609      15.04841480
I       25.26001403       6.81121029      15.05872844
I       28.16958171      10.95261716      15.04428301
I       31.09378834      15.09812874      15.04317455
I       34.00335457      19.21128976      15.04793145
I       36.94714750      23.35194980      15.05608419
I       39.83630799      27.48410881      15.03905518
I       23.80109436      -1.43675688      15.06819628
I       26.70578894       2.72127015      15.05876764
I       29.62812731       6.82937717      15.05451371
I       32.53226733      10.96594494      15.05800425
I       35.44816325      15.09690997      15.05719136
I       38.38218769      19.23920645      15.05643278
I       41.28633893      23.35841426      15.05972931
I       44.21605801      27.48837831      15.05162275
I       28.19794462      -1.44941666      15.05446306
I       31.11478749       2.70489451      15.05026953
I       34.01705635       6.82285187      15.04709504
I       36.95311068      10.96251651      15.04204794
I       39.85562750      15.08029059      15.05850955
I       42.76879930      19.22192706      15.03577553
I       45.70784536      23.36394241      15.05882648
I       48.60428518      27.47651174      15.05879326
I       32.56393432      -1.42638235      15.05715013
I       35.46982698       2.69800453      15.05621612
I       38.39040788       6.84066935      15.06012079
I       41.30070122      10.97496745      15.05370510
I       44.20999744      15.09834208      15.04451555
I       47.14340950      19.21799807      15.06175334
I       50.07064271      23.36725215      15.05122066
I       52.97300403      27.49008082      15.05270892
I       36.95373575      -1.42184826      15.04916603
I       39.87983821       2.69715728      15.02603405
I       42.77413787       6.82288422      15.05315639
I       45.70671048      10.96670439      15.03642516
I       48.62839401      15.09813226      15.06847061
I       51.53855510      19.21637931      15.05077545
I       54.46289873      23.34422080      15.06273965
I       57.38729559      27.49365414      15.05778860
I        4.82053954      -3.48371043      18.64119812
I        7.73069663       0.63329860      18.64696670
I       10.64443956       4.78280725      18.64707757
I       13.54583749       8.88275551      18.64899800
I       16.46870175      13.04734760      18.64909779
I       19.39534952      17.16361354      18.64278923
I       22.30478213      21.28976464      18.64250309
I       25.22733427      25.42150783      18.64545632
I        9.22538530      -3.48313674      18.64157377
I       12.12308694       0.61440546      18.64372746
I       15.04448616       4.76799051      18.63974677
I       17.95666379       8.88476062      18.65121943
I       20.87220101      13.01493194      18.65171750
I       23.79124961      17.14280924      18.64965822
I       26.71175831      21.28523290      18.64782821
I       29.62916378      25.39753597      18.65036404
I       13.57425245      -3.47535258      18.64715225
I       16.49275304       0.64196292      18.66161429
I       19.41391536       4.77123683      18.65223533
I       22.31116363       8.89403368      18.64488755
I       25.24518212      13.03556635      18.64540938
I       28.14518560      17.16046385      18.65298979
I       31.07473961      21.30438817      18.63699745
I       33.99299355      25.42008988      18.64193183
I       17.99048897      -3.49334537      18.64842731
I       20.89173661       0.62767762      18.65462737
I       23.80422386       4.75490790      18.63973048
I       26.71981054       8.88107871      18.65529582
I       29.63830986      13.02408549      18.65796146
I       32.55484015      17.13445960      18.64231912
I       35.47788559      21.28367787      18.64927717
I       38.39887104      25.40310236      18.65409299
I       22.33960380      -3.48955499      18.64340853
I       25.25854308       0.63261660      18.64539471
I       28.16482180       4.78231252      18.64337527
I       31.08525784       8.90776671      18.64797825
I       33.99248176      13.02895583      18.64886043
I       36.91933134      17.15559884      18.65314427
I       39.82749660      21.30978477      18.63596117
I       42.76767068      25.42414302      18.64956070
I       26.74759309      -3.49665529      18.64314225
I       29.66297501       0.62304702      18.65083967
I       32.57473907       4.75292195      18.64037623
I       35.48334331       8.86797930      18.64295740
I       38.40771316      13.02301216      18.64957802
I       41.31749299      17.13520684      18.64485525
I       44.24941101      21.28404013      18.65291855
I       47.15132082      25.40895485      18.65094739
I       31.10218867      -3.49034865      18.64269070
I       34.02669849       0.63866588      18.65818194
I       36.93048627       4.77377308      18.64474403
I       39.84786927       8.89690628      18.64657261
I       42.76233995      13.04556434      18.64297176
I       45.69146785      17.15623341      18.64337557
I       48.59031968      21.29148626      18.63794571
I       51.53762608      25.41450307      18.65904120
I       35.51804377      -3.50150869      18.64147801
I       38.42677991       0.62124387      18.64868852
I       41.33236053       4.76543836      18.65520433
I       44.24648249       8.87073511      18.64961832
I       47.18013331      13.02880007      18.64448794
I       50.08513160      17.13097048      18.63192755
I       53.00259760      21.29663142      18.64937575
I       55.92722543      25.41628330      18.63976356
I       10.68929581      -1.43874862      22.20799155
I       13.59588113       2.68802042      22.21123757
I       16.49922526       6.81260530      22.20657258
I       19.42561436      10.94947598      22.21252769
I       22.33359770      15.07590509      22.20368164
I       25.25524702      19.21191897      22.21329365
I       28.17397187      23.33457219      22.20057339
I       31.09535242      27.47092946      22.22457711
I       15.04136621      -1.41924357      22.20253020
I       17.95445264       2.69187135      22.21145853
I       20.87403968       6.84336895      22.21553757
I       23.79113989      10.94539003      22.21573582
I       26.70908087      15.09455504      22.20191730
I       29.62533095      19.22879314      22.20521170
I       32.53612546      23.34635751      22.20292037
I       35.45785163      27.49137422      22.20476963
I       19.43493686      -1.43643978      22.21400880
I       22.35166017       2.67509963      22.21845380
I       25.27252958       6.81645519      22.21365664
I       28.18743548      10.94611782      22.21081562
I       31.10399574      15.08005834      22.21538920
I       34.01850997      19.20244020      22.20985847
I       36.94005991      23.34411357      22.20261620
I       39.86504328      27.46929180      22.22148040
I       23.80516169      -1.42403535      22.20914790
I       26.71839726       2.69233075      22.22013385
I       29.63281018       6.83848708      22.20787528
I       32.55249316      10.96038369      22.21351615
I       35.48168493      15.09403134      22.20929453
I       38.37417881      19.22718998      22.21412766
I       41.30630593      23.35962037      22.21996649
I       44.21452512      27.47592637      22.21156866
I       28.20729107      -1.43957640      22.21324962
I       31.12029391       2.68528174      22.21404868
I       34.03093709       6.82678235      22.20688372
I       36.94407304      10.94801532      22.21112161
I       39.86516901      15.07897957      22.19817632
I       42.79472438      19.21259052      22.22621052
I       45.70229668      23.33966813      22.21419295
I       48.62932179      27.46460343      22.23511968
I       32.56939825      -1.42338838      22.20516722
I       35.48037801       2.70851210      22.22245366
I       38.39629074       6.82564438      22.20414618
I       41.31044390      10.96351480      22.21475481
I       44.23705872      15.10454737      22.21378355
I       47.12750452      19.21526694      22.23009569
I       50.07162111      23.35696662      22.22091781
I       52.97668503      27.48203426      22.20979692
I       36.97132937      -1.43900243      22.20964703
I       39.88599998       2.68680997      22.20705849
I       42.80042678       6.82255780      22.20206199
I       45.71051750      10.94616595      22.21904724
I       48.62662593      15.06669384      22.19341478
I       51.55473164      19.21587889      22.22250970
I       54.46793416      23.33461157      22.20235042
I       57.39723839      27.47144289      22.21665316
I       41.33306649      -1.43577332      22.20229193
I       44.24224074       2.71075729      22.21789254
I       47.16566084       6.83229995      22.19811550
I       50.08845944      10.96413239      22.21226004
I       52.99782123      15.10073808      22.20995389
I       55.90645609      19.21943052      22.22131400
I       58.83629034      23.36127423      22.20368983
I       61.74596834      27.49794598      22.20557481
I        9.22895263      -3.51660232      25.81557163
I       12.14689160       0.62649840      25.80847993
I       15.05948315       4.73577216      25.80522247
I       17.97219991       8.87086077      25.81004474
I       20.89662123      13.00737266      25.79732846
I       23.80321599      17.14149773      25.80309503
I       26.71560400      21.25840245      25.79959869
I       29.64092810      25.41464160      25.81050738
I       13.59772533      -3.51411126      25.81329127
I       16.49694826       0.62831474      25.81561976
I       19.42919932       4.76376090      25.81831342
I       22.31800605       8.90400810      25.80402603
I       25.24914161      13.03057227      25.80778445
I       28.18214727      17.14684917      25.80722512
I       31.09624312      21.27431487      25.80976719
I       33.99915534      25.41834347      25.82285687
I       17.98641739      -3.52069684      25.82144146
I       20.91519656       0.62037828      25.81176829
I       23.82513489       4.75077501      25.82404835
I       26.74311721       8.87860011      25.80967445
I       29.66271037      13.00756733      25.82155712
I       32.56410991      17.14351292      25.81273553
I       35.48111812      21.26238041      25.80370153
I       38.39675590      25.42504521      25.81100878
I       22.36043937      -3.50867667      25.81974660
I       25.26274783       0.63917882      25.79847709
I       28.18130486       4.76054053      25.81068222
I       31.09663680       8.89646376      25.81029669
I       34.01753578      13.01821839      25.81705760
I       36.93553974      17.15373538      25.80310614
I       39.85484400      21.26121807      25.80492544
I       42.76596322      25.41586562      25.80669899
I       26.74974045      -3.50774119      25.81155803
I       29.67835656       0.62373403      25.79877692
I       32.58535676       4.74516898      25.81155619
I       35.49908976       8.87842510      25.80274255
I       38.41753689      13.00532486      25.80359467
I       41.33969241      17.15630869      25.81619095
I       44.24428549      21.24728382      25.80564628
I       47.16884026      25.40428442      25.80344143
I       31.12120766      -3.50306699      25.82022892
I       34.03488902       0.63306827      25.80505431
I       36.94974184       4.75619736      25.80653620
I       39.86322452       8.90030204      25.80756968
I       42.76738729      13.00094518      25.80975151
I       45.69063794      17.17070396      25.80917362
I       48.62317419      21.26546325      25.80767248
I       51.52407506      25.42733843      25.80813768
I       35.51589330      -3.52397225      25.80706391
I       38.44936998       0.62340930      25.81492910
I       41.34513913       4.74503787      25.81365010
I       44.27814843       8.89768894      25.81424961
I       47.18734671      12.98896817      25.80725212
I       50.11423860      17.14564988      25.80457905
I       53.00256303      21.27025835      25.80557923
I       55.94352691      25.41788216      25.80775205
I       39.89498562      -3.50878746      25.80873680
I       42.79065147       0.63100580      25.81377522
I       45.71989213       4.75767336      25.81220529
I       48.62199494       8.90288572      25.81073005
I       51.54677069      13.01558498      25.80024706
I       54.46054237      17.16016126      25.79612776
I       57.38899442      21.27988679      25.80222590
I       60.29794881      25.41415780      25.80818970
I        7.75958228      -5.58700985      29.36339380
I       10.69594562      -1.44194530      29.37820906
I       13.60746110       2.68449416      29.36416820
I       16.52326665       6.80779341      29.38014258
I       19.43783967      10.94282364      29.37013254
I       22.35358805      15.06919143      29.37244525
I       25.26715922      19.20075149      29.36301016
I       28.17454889      23.32938714      29.37353431
I       12.13640684      -5.57701384      29.36763800
I       15.06154679      -1.44467377      29.37772303
I       17.98682031       2.69521603      29.36995501
I       20.87839366       6.82854833      29.37580207
I       23.79569354      10.96586638      29.37771572
I       26.71412506      15.09681934      29.35800135
I       29.63054347      19.19867001      29.37419982
I       32.55409066      23.34805791      29.35620568
I       16.52377374      -5.58167316      29.37619334
I       19.45165258      -1.45252008      29.37806195
I       22.36763291       2.68426360      29.37646586
I       25.27792142       6.81034616      29.38117995
I       28.20329569      10.94450199      29.37072081
I       31.10641522      15.07069766      29.37052069
I       34.02724011      19.19352311      29.37077801
I       36.93390839      23.33812608      29.38210215
I       20.90750382      -5.57430146      29.37385953
I       23.81617809      -1.43104919      29.36919112
I       26.73378463       2.70815309      29.37126952
I       29.64609855       6.82462876      29.36765414
I       32.56196881      10.94636230      29.37543329
I       35.49379011      15.09755174      29.36813833
I       38.39479664      19.20917155      29.38002565
I       41.31522506      23.35156046      29.37365109
I       25.28953053      -5.57794166      29.37460219
I       28.22196336      -1.44100507      29.38108020
I       31.13473851       2.67403100      29.37710188
I       34.04483127       6.80380375      29.36092264
I       36.97801653      10.94442352      29.36819483
I       39.87373491      15.06424763      29.38415505
I       42.78964243      19.19005941      29.36666017
I       45.70047198      23.33889059      29.39150628
I       29.66796354      -5.57370376      29.36706952
I       32.58382481      -1.43490303      29.37002489
I       35.50127534       2.68903650      29.37584636
I       38.42474798       6.82876366      29.37051643
I       41.32110929      10.94778994      29.36365988
I       44.24679868      15.08663027      29.37063162
I       47.16203654      19.21905087      29.37345812
I       50.08270501      23.34083831      29.36868892
I       34.05037956      -5.58235505      29.35124312
I       36.97763139      -1.45163170      29.37257767
I       39.90570962       2.68482100      29.36829942
I       42.80971276       6.81328071      29.37685244
I       45.74507486      10.93777796      29.36091060
I       48.64822000      15.06648031      29.38268920
I       51.55553079      19.19480468      29.35888244
I       54.46430782      23.34392423      29.37970909
I       38.43213619      -5.57917219      29.37417515
I       41.34869216      -1.43309214      29.37009109
I       44.27288177       2.69176194      29.36066090
I       47.18912470       6.82083918      29.37284504
I       50.08521973      10.95157554      29.37217704
I       53.00087403      15.08246841      29.37270706
I       55.91835331      19.22703854      29.37505617
I       58.83243864      23.34877662      29.36119449
I       13.59198220      -3.49995539      32.97513300
I       16.52369917       0.62551756      32.97657090
I       19.42194116       4.74527319      32.97534477
I       22.36089926       8.89725646      32.96246721
I       25.24554818      13.00616357      32.96265555
I       28.18832462      17.15472223      32.96009446
I       31.07272240      21.27178196      32.97487192
I       34.01025054      25.41102246      32.97378990
I       18.00107054      -3.50611949      32.97936108
I       20.91197069       0.61240936      32.97140272
I       23.84297281       4.75593519      32.96820272
I       26.74677338       8.87967921      32.98512972
I       29.66966406      13.00770444      32.96021875
I       32.56948610      17.13499567      32.96046565
I       35.49510680      21.27580552      32.97168422
I       38.40168568      25.38825225      32.96978183
I       22.36738049      -3.50356684      32.97658834
I       25.28918335       0.62616222      32.97598477
I       28.18318679       4.74874889      32.96513434
I       31.11911883       8.89022397      32.94919387
I       34.01534056      13.01069626      32.99435709
I       36.94685328      17.15402589      32.96199958
I       39.84313502      21.28586479      32.96774807
I       42.77752187      25.40345303      32.96933561
I       26.76114291      -3.50953154      32.97042779
I       29.67861643       0.61400157      32.95362299
I       32.60907673       4.75099811      32.96456647
I       35.50460816       8.86713289      32.97628241
I       38.43363518      13.01365164      32.97028462
I       41.33281763      17.11783606      32.97574431
I       44.25418748      21.27971145      32.96193571
I       47.16694014      25.38136483      32.95859170
I       31.12045321      -3.50546778      32.97339454
I       34.05097408       0.62019157      32.96258961
I       36.95612661       4.75713009      32.96862010
I       39.87511175       8.88061134      32.96104434
I       42.78835788      13.02576085      32.97302857
I       45.71085286      17.13151953      32.94775535
I       48.61876084      21.27814608      32.96024286
I       51.54840737      25.40857456      32.95585166
I       35.53705608      -3.51058602      32.97107176
I       38.43819607       0.60343281      32.96135952
I       41.36631256       4.75527529      32.97481068
I       44.26826018       8.85992442      32.98606335
I       47.19590271      13.01302677      32.96219885
I       50.09060371      17.12957235      32.95087958
I       53.02742733      21.27007460      32.96199434
I       55.92849264      25.39409206      32.97277628
I       39.89251221      -3.50588180      32.97778060
I       42.80922707       0.62277039      32.95274824
I       45.72611202       4.76753505      32.97762591
I       48.64192249       8.87511489      32.97408288
I       51.56041946      13.01148489      32.96167569
I       54.47933827      17.15124082      32.96195978
I       57.37563486      21.27598253      32.95946229
I       60.30890354      25.40652046      32.96636269
I       44.29930805      -3.51131695      32.98056666
I       47.20102629       0.61086991      32.97482276
I       50.12362795       4.75122344      32.97543702
I       53.03264105       8.87715495      32.96986150
I       55.95300609      13.01937963      32.96358983
I       58.85341635      17.12913148      32.97420487
I       61.79843062      21.26738847      32.95757912
I       64.69698398      25.39235712      32.96499251
I       12.14546388      -5.56470695      36.52476573
I       15.05586805      -1.43820823      36.53582320
I       17.98474798       2.69897848      36.53185265
I       20.87837760       6.81501450      36.53449975
I       23.82795345      10.96212920      36.52644405
I       26.71448648      15.07007596      36.54654696
I       29.64649253      19.21947805      36.51821257
I       32.54818888      23.32929964      36.53277988
I       16.54001038      -5.57876216      36.54536627
I       19.46452203      -1.46627441      36.53614474
I       22.38014831       2.68045317      36.55442463
I       25.30808733       6.80122966      36.53944219
I       28.19197637      10.94483006      36.54485610
I       31.13342618      15.04581112      36.53831799
I       34.04538298      19.19530626      36.53406451
I       36.95108992      23.30748150      36.52207423
I       20.89693538      -5.56193194      36.53113585
I       23.82793618      -1.44679181      36.52497914
I       26.73791786       2.69591394      36.52753899
I       29.65331569       6.81627389      36.54857987
I       32.58658514      10.96231001      36.53341790
I       35.47999167      15.06166506      36.54132271
I       38.39583522      19.21586612      36.53222413
I       41.31304129      23.32878013      36.53740562
I       25.30959151      -5.57675746      36.52251500
I       28.22586181      -1.45868679      36.53548049
I       31.14683300       2.68022325      36.54943538
I       34.06270832       6.79538447      36.51860037
I       36.95631742      10.93586469      36.52876871
I       39.89051898      15.05576961      36.53677049
I       42.80778518      19.20251337      36.53536976
I       45.72139256      23.31982418      36.52838319
I       29.67206630      -5.55922031      36.52755535
I       32.60192892      -1.44324213      36.53926910
I       35.51406687       2.69418779      36.52515284
I       38.42952478       6.80090219      36.53522233
I       41.34139629      10.96526002      36.52227314
I       44.25498629      15.07982236      36.52956056
I       47.16753673      19.22312809      36.52578314
I       50.07461721      23.33447714      36.52682095
I       34.07298745      -5.57870525      36.53757065
I       36.98490732      -1.46761874      36.52381950
I       39.91095493       2.67792091      36.53793842
I       42.83431120       6.80948178      36.53708619
I       45.73728091      10.93863289      36.54059740
I       48.65940342      15.05825509      36.52594470
I       51.55855022      19.19632937      36.53705288
I       54.47724267      23.32592959      36.52345363
I       38.44154198      -5.57911263      36.52118478
I       41.35713546      -1.45406127      36.53826255
I       44.26993807       2.68653798      36.52295466
I       47.18938607       6.82920965      36.52918457
I       50.10802613      10.96445451      36.53969850
I       53.01377784      15.07850505      36.53319043
I       55.94351101      19.20846222      36.52801002
I       58.83785276      23.34136103      36.53879540
I       42.83993942      -5.57317831      36.52284852
I       45.76134067      -1.46304643      36.51898246
I       48.66928237       2.67891447      36.53459303
I       51.60516897       6.80595056      36.52623919
I       54.49359984      10.94089071      36.54927089
I       57.42454679      15.06763520      36.51844992
I       60.32321434      19.20456772      36.54199920
I       63.25085425      23.32135086      36.51832564
I       10.67786563      -7.64427672      40.13993274
I       13.62758657      -3.51569823      40.12519236
I       16.51309571       0.63091518      40.14231502
I       19.44344358       4.74795655      40.11920488
I       22.34644573       8.88114254      40.13506144
I       25.28712697      13.02185646      40.12908003
I       28.16881011      17.13352507      40.14559708
I       31.10278324      21.27224053      40.12018929
I       15.08961611      -7.64621948      40.13172979
I       17.99135831      -3.53818010      40.12996877
I       20.94305661       0.61903929      40.12761195
I       23.82513619       4.72845106      40.13568686
I       26.77943368       8.87377750      40.12993664
I       29.65700606      12.99460471      40.13615400
I       32.58880024      17.13119490      40.12595504
I       35.48428213      21.25159098      40.13391637
I       19.44149940      -7.63291328      40.12438652
I       22.39141920      -3.51226562      40.12632743
I       25.27842710       0.61706636      40.13433517
I       28.22815264       4.75519547      40.11179125
I       31.11067662       8.86846412      40.14240338
I       34.04345205      13.01663837      40.11544432
I       36.94006369      17.13726327      40.13186493
I       39.86480051      21.28005148      40.12145868
I       23.86187705      -7.64057639      40.11821392
I       26.76003053      -3.52440573      40.11076878
I       29.71006076       0.60699754      40.13397659
I       32.59549672       4.73738218      40.12754611
I       35.53243941       8.86997309      40.13002824
I       38.43027539      12.99338243      40.11872842
I       41.35850896      17.12895039      40.11838282
I       44.25216658      21.25274310      40.12360133
I       28.20610868      -7.64236285      40.13423833
I       31.15082794      -3.50775154      40.11706580
I       34.04170941       0.60746830      40.11893706
I       36.98785045       4.75680369      40.12681793
I       39.87856173       8.86784004      40.14292857
I       42.79747756      13.00743635      40.12862708
I       45.70381367      17.15528932      40.13310118
I       48.63420478      21.28543074      40.11810661
I       32.61727741      -7.65537879      40.12166817
I       35.52808339      -3.52112955      40.12670740
I       38.46472612       0.60507428      40.12956950
I       41.36415057       4.73223990      40.13832236
I       44.29452649       8.86816740      40.13050454
I       47.18674930      13.00544107      40.13407479
I       50.11287910      17.13953071      40.12968377
I       53.02164419      21.25839324      40.12434068
I       36.97283661      -7.64652498      40.12677487
I       39.91473683      -3.50454374      40.13178051
I       42.81329091       0.61599164      40.13730749
I       45.74451751       4.74914978      40.11483746
I       48.64984928       8.89404085      40.13196456
I       51.57599792      13.02407533      40.11606051
I       54.46794308      17.14157184      40.13187955
I       57.39100928      21.28309551      40.12179350
I       41.38682912      -7.65647980      40.12252720
I       44.28919248      -3.53917236      40.13087133
I       47.23513179       0.62097794      40.14004943
I       50.13239738       4.73260303      40.13630972
I       53.06743652       8.87232853      40.12564281
I       55.94958748      12.98496467      40.13801848
I       58.89426207      17.13057076      40.11649458
I       61.77788667      21.24529043      40.13235921
