# 47-47 53-53 47-53 53-47
2.500000000000000139e-02 0.000000000000000000e+00 0.000000000000000000e+00 0.000000000000000000e+00 0.000000000000000000e+00
7.500000000000001110e-02 0.000000000000000000e+00 0.000000000000000000e+00 0.000000000000000000e+00 0.000000000000000000e+00
1.250000000000000000e-01 0.000000000000000000e+00 0.000000000000000000e+00 0.000000000000000000e+00 0.000000000000000000e+00
1.750000000000000167e-01 0.000000000000000000e+00 0.000000000000000000e+00 0.000000000000000000e+00 0.000000000000000000e+00
2.250000000000000056e-01 0.000000000000000000e+00 0.000000000000000000e+00 0.000000000000000000e+00 0.000000000000000000e+00
2.750000000000000222e-01 0.000000000000000000e+00 0.000000000000000000e+00 0.000000000000000000e+00 0.000000000000000000e+00
3.250000000000000666e-01 0.000000000000000000e+00 0.000000000000000000e+00 0.000000000000000000e+00 0.000000000000000000e+00
3.750000000000000555e-01 0.000000000000000000e+00 0.000000000000000000e+00 0.000000000000000000e+00 0.000000000000000000e+00
4.250000000000000444e-01 0.000000000000000000e+00 0.000000000000000000e+00 0.000000000000000000e+00 0.000000000000000000e+00
4.750000000000000333e-01 0.000000000000000000e+00 0.000000000000000000e+00 0.000000000000000000e+00 0.000000000000000000e+00
5.250000000000000222e-01 0.000000000000000000e+00 0.000000000000000000e+00 0.000000000000000000e+00 0.000000000000000000e+00
5.750000000000000666e-01 0.000000000000000000e+00 0.000000000000000000e+00 0.000000000000000000e+00 0.000000000000000000e+00
6.250000000000001110e-01 0.000000000000000000e+00 0.000000000000000000e+00 0.000000000000000000e+00 0.000000000000000000e+00
6.750000000000000444e-01 0.000000000000000000e+00 0.000000000000000000e+00 0.000000000000000000e+00 0.000000000000000000e+00
7.250000000000000888e-01 0.000000000000000000e+00 0.000000000000000000e+00 0.000000000000000000e+00 0.000000000000000000e+00
7.750000000000000222e-01 0.000000000000000000e+00 0.000000000000000000e+00 0.000000000000000000e+00 0.000000000000000000e+00
8.250000000000000666e-01 0.000000000000000000e+00 0.000000000000000000e+00 0.000000000000000000e+00 0.000000000000000000e+00
8.750000000000001110e-01 0.000000000000000000e+00 0.000000000000000000e+00 0.000000000000000000e+00 0.000000000000000000e+00
9.250000000000000444e-01 0.000000000000000000e+00 0.000000000000000000e+00 0.000000000000000000e+00 0.000000000000000000e+00
9.750000000000000888e-01 0.000000000000000000e+00 0.000000000000000000e+00 0.000000000000000000e+00 0.000000000000000000e+00
1.024999999999999911e+00 0.000000000000000000e+00 0.000000000000000000e+00 0.000000000000000000e+00 0.000000000000000000e+00
1.074999999999999956e+00 0.000000000000000000e+00 0.000000000000000000e+00 0.000000000000000000e+00 0.000000000000000000e+00
1.125000000000000000e+00 0.000000000000000000e+00 0.000000000000000000e+00 0.000000000000000000e+00 0.000000000000000000e+00
1.175000000000000044e+00 0.000000000000000000e+00 0.000000000000000000e+00 0.000000000000000000e+00 0.000000000000000000e+00
1.225000000000000089e+00 0.000000000000000000e+00 0.000000000000000000e+00 0.000000000000000000e+00 0.000000000000000000e+00
1.274999999999999911e+00 0.000000000000000000e+00 0.000000000000000000e+00 0.000000000000000000e+00 0.000000000000000000e+00
1.324999999999999956e+00 0.000000000000000000e+00 0.000000000000000000e+00 0.000000000000000000e+00 0.000000000000000000e+00
1.375000000000000000e+00 0.000000000000000000e+00 0.000000000000000000e+00 0.000000000000000000e+00 0.000000000000000000e+00
1.425000000000000044e+00 0.000000000000000000e+00 0.000000000000000000e+00 0.000000000000000000e+00 0.000000000000000000e+00
1.475000000000000089e+00 0.000000000000000000e+00 0.000000000000000000e+00 0.000000000000000000e+00 0.000000000000000000e+00
1.524999999999999911e+00 0.000000000000000000e+00 0.000000000000000000e+00 0.000000000000000000e+00 0.000000000000000000e+00
1.574999999999999956e+00 0.000000000000000000e+00 0.000000000000000000e+00 0.000000000000000000e+00 0.000000000000000000e+00
1.625000000000000000e+00 0.000000000000000000e+00 0.000000000000000000e+00 0.000000000000000000e+00 0.000000000000000000e+00
1.675000000000000044e+00 0.000000000000000000e+00 0.000000000000000000e+00 0.000000000000000000e+00 0.000000000000000000e+00
1.725000000000000089e+00 0.000000000000000000e+00 0.000000000000000000e+00 0.000000000000000000e+00 0.000000000000000000e+00
1.774999999999999911e+00 0.000000000000000000e+00 0.000000000000000000e+00 0.000000000000000000e+00 0.000000000000000000e+00
1.824999999999999956e+00 0.000000000000000000e+00 0.000000000000000000e+00 0.000000000000000000e+00 0.000000000000000000e+00
1.875000000000000000e+00 0.000000000000000000e+00 0.000000000000000000e+00 0.000000000000000000e+00 0.000000000000000000e+00
1.925000000000000044e+00 0.000000000000000000e+00 0.000000000000000000e+00 0.000000000000000000e+00 0.000000000000000000e+00
1.975000000000000089e+00 0.000000000000000000e+00 0.000000000000000000e+00 0.000000000000000000e+00 0.000000000000000000e+00
2.024999999999999911e+00 0.000000000000000000e+00 0.000000000000000000e+00 0.000000000000000000e+00 0.000000000000000000e+00
2.075000000000000178e+00 0.000000000000000000e+00 0.000000000000000000e+00 0.000000000000000000e+00 0.000000000000000000e+00
2.125000000000000000e+00 0.000000000000000000e+00 0.000000000000000000e+00 0.000000000000000000e+00 0.000000000000000000e+00
2.174999999999999822e+00 0.000000000000000000e+00 0.000000000000000000e+00 0.000000000000000000e+00 0.000000000000000000e+00
2.225000000000000089e+00 0.000000000000000000e+00 0.000000000000000000e+00 0.000000000000000000e+00 0.000000000000000000e+00
2.274999999999999911e+00 0.000000000000000000e+00 0.000000000000000000e+00 0.000000000000000000e+00 0.000000000000000000e+00
2.325000000000000178e+00 0.000000000000000000e+00 0.000000000000000000e+00 0.000000000000000000e+00 0.000000000000000000e+00
2.375000000000000000e+00 0.000000000000000000e+00 0.000000000000000000e+00 0.000000000000000000e+00 0.000000000000000000e+00
2.425000000000000266e+00 0.000000000000000000e+00 0.000000000000000000e+00 0.000000000000000000e+00 0.000000000000000000e+00
2.475000000000000089e+00 0.000000000000000000e+00 0.000000000000000000e+00 5.482129640550672048e-03 5.482129640550672048e-03
2.524999999999999911e+00 2.106866095756774245e-03 0.000000000000000000e+00 5.203959256519232607e-02 5.203959256519232607e-02
2.575000000000000178e+00 1.337054678881873827e-02 0.000000000000000000e+00 2.890874282976415022e-01 2.890874282976415022e-01
2.625000000000000000e+00 5.770225622379316494e-02 0.000000000000000000e+00 1.026359388575239784e+00 1.026359388575239784e+00
2.675000000000000266e+00 1.651942013946813559e-01 0.000000000000000000e+00 2.412023061045750705e+00 2.412023061045750705e+00
2.725000000000000089e+00 3.777088670768235512e-01 0.000000000000000000e+00 4.113553466152762184e+00 4.113553466152762184e+00
2.774999999999999911e+00 6.792500383144309817e-01 0.000000000000000000e+00 5.416033497592390944e+00 5.416033497592390944e+00
2.825000000000000178e+00 1.035137187041360596e+00 0.000000000000000000e+00 5.857361643746235913e+00 5.857361643746235913e+00
2.875000000000000000e+00 1.408974388213268814e+00 0.000000000000000000e+00 5.492237419152898426e+00 5.492237419152898426e+00
2.925000000000000266e+00 1.582276261447060017e+00 0.000000000000000000e+00 4.796127727196346946e+00 4.796127727196346946e+00
2.975000000000000089e+00 1.697698536155122451e+00 0.000000000000000000e+00 3.868008661938981518e+00 3.868008661938981518e+00
3.024999999999999911e+00 1.719547436483390479e+00 0.000000000000000000e+00 3.001354523334420321e+00 3.001354523334420321e+00
3.075000000000000178e+00 1.662093001526431024e+00 0.000000000000000000e+00 2.311445745968936816e+00 2.311445745968936816e+00
3.125000000000000000e+00 1.555136938432414073e+00 0.000000000000000000e+00 1.827485349726963859e+00 1.827485349726963859e+00
3.175000000000000266e+00 1.484155663307531681e+00 0.000000000000000000e+00 1.403138726398662994e+00 1.403138726398662994e+00
3.225000000000000089e+00 1.388381204316204709e+00 5.166069597455645633e-04 1.139893256678588207e+00 1.139893256678588207e+00
3.274999999999999911e+00 1.283441882214128693e+00 0.000000000000000000e+00 9.371580410429669605e-01 9.371580410429669605e-01
3.325000000000000178e+00 1.185111333210560502e+00 2.430000683228543054e-03 7.976477242697692649e-01 7.976477242697692649e-01
3.375000000000000000e+00 1.109218538538910837e+00 4.481214593289241377e-03 6.653424404036289985e-01 6.653424404036289985e-01
3.425000000000000266e+00 1.058518577440356268e+00 8.473645037925829279e-03 6.060946376451542550e-01 6.060946376451542550e-01
3.475000000000000089e+00 1.021602522318780570e+00 2.135754402060168269e-02 5.586332607888627733e-01 5.586332607888627733e-01
3.524999999999999911e+00 9.456931232963349254e-01 4.605227143624127800e-02 5.081965446520427809e-01 5.081965446520427809e-01
3.575000000000000178e+00 9.538983427286791272e-01 9.143802976795403770e-02 5.026989613564645243e-01 5.026989613564645243e-01
3.625000000000000000e+00 9.300142649585233512e-01 1.584438459755672934e-01 4.804426297323653450e-01 4.804426297323653450e-01
3.675000000000000266e+00 9.319328130463007120e-01 2.528253159833186992e-01 4.634799262322050750e-01 4.634799262322050750e-01
3.725000000000000089e+00 8.997250522585524823e-01 3.777412474621122951e-01 4.592528134188264555e-01 4.592528134188264555e-01
3.774999999999999911e+00 9.194085510794091087e-01 5.531155810676617879e-01 4.711096922590615743e-01 4.711096922590615743e-01
3.825000000000000178e+00 9.302335556657699289e-01 7.400002426634529895e-01 4.798984203972541662e-01 4.798984203972541662e-01
3.875000000000000000e+00 9.537948295462724824e-01 9.686447584249707754e-01 4.806546256942526574e-01 4.806546256942526574e-01
3.925000000000000266e+00 9.751637203247240926e-01 1.192273668787578567e+00 5.116470592690880448e-01 5.116470592690880448e-01
3.975000000000000089e+00 9.557163466766526172e-01 1.465114349637558488e+00 5.253804503168220119e-01 5.253804503168220119e-01
4.025000000000000355e+00 9.555010739454431468e-01 1.732239538082974484e+00 5.367023994835867784e-01 5.367023994835867784e-01
4.075000000000000178e+00 9.855856316220262814e-01 1.930078231328097971e+00 5.702871555265335290e-01 5.702871555265335290e-01
4.125000000000000888e+00 1.040464348739392753e+00 2.123399852230059448e+00 5.855177598330861821e-01 5.855177598330861821e-01
4.175000000000000711e+00 1.033725052702923586e+00 2.341332529537813123e+00 6.108025024394939662e-01 6.108025024394939662e-01
4.225000000000000533e+00 1.052144939115007283e+00 2.440807698836673811e+00 6.377434100271553996e-01 6.377434100271553996e-01
4.275000000000000355e+00 1.083096304527614295e+00 2.583231726311586041e+00 6.487111823941859035e-01 6.487111823941859035e-01
4.325000000000000178e+00 1.062937858651292755e+00 2.698204776446674558e+00 6.641745882087425334e-01 6.641745882087425334e-01
4.375000000000000888e+00 1.070782328265367900e+00 2.730923025437050899e+00 7.062054377594964016e-01 7.062054377594964016e-01
4.425000000000000711e+00 1.054403931909937198e+00 2.704817060985361454e+00 7.094759573072589864e-01 7.094759573072589864e-01
4.475000000000000533e+00 1.056060262095680491e+00 2.690726711998610465e+00 7.143700324770704269e-01 7.143700324770704269e-01
4.525000000000000355e+00 1.096748005109058566e+00 2.621882448390275844e+00 7.226151020622251231e-01 7.226151020622251231e-01
4.575000000000000178e+00 1.075601791267511542e+00 2.553206543185362332e+00 7.418828584160163109e-01 7.418828584160163109e-01
4.625000000000000888e+00 1.059253280088241933e+00 2.412520305574465507e+00 7.417536011621007619e-01 7.417536011621007619e-01
4.675000000000000711e+00 1.062407132220244854e+00 2.300222684859127842e+00 7.483437025288500744e-01 7.483437025288500744e-01
4.725000000000000533e+00 1.029933289580091671e+00 2.221233624530776218e+00 7.494963773980138910e-01 7.494963773980138910e-01
4.775000000000000355e+00 1.008948240177755862e+00 2.105677215954300685e+00 7.504369195015914151e-01 7.504369195015914151e-01
4.825000000000001066e+00 1.000377839405953928e+00 2.003871401693896548e+00 7.522739802846248880e-01 7.522739802846248880e-01
4.875000000000000888e+00 1.006527410099794517e+00 1.896056182570064141e+00 7.497521392056252232e-01 7.497521392056252232e-01
4.925000000000000711e+00 9.702448171045791048e-01 1.808243936535314900e+00 7.481739428700264760e-01 7.481739428700264760e-01
4.975000000000000533e+00 9.625631007685769847e-01 1.708039349762553893e+00 7.445536298739348080e-01 7.445536298739348080e-01
5.025000000000000355e+00 9.585044858034158510e-01 1.606019004684489104e+00 7.513019676435588323e-01 7.513019676435588323e-01
5.075000000000001066e+00 9.109217293644690239e-01 1.510484090567602911e+00 7.593622111271423059e-01 7.593622111271423059e-01
5.125000000000000888e+00 9.108269648364838433e-01 1.470619887750585608e+00 7.770412635443871840e-01 7.770412635443871840e-01
5.175000000000000711e+00 9.037443051399983718e-01 1.375830074924528690e+00 7.944001723169772378e-01 7.944001723169772378e-01
5.225000000000000533e+00 8.893842665917016665e-01 1.292451090663355950e+00 8.014102087987186041e-01 8.014102087987186041e-01
5.275000000000000355e+00 8.724107116321511146e-01 1.217570992075371450e+00 8.345154920310422497e-01 8.345154920310422497e-01
5.325000000000001066e+00 8.651049829704967609e-01 1.126881904222000852e+00 8.647260080573567764e-01 8.647260080573567764e-01
5.375000000000000888e+00 8.763307179555959170e-01 1.011444102207450735e+00 9.136194083100307450e-01 9.136194083100307450e-01
5.425000000000000711e+00 8.744004716563249513e-01 8.913791215913993149e-01 9.509869624924933706e-01 9.509869624924933706e-01
5.475000000000000533e+00 8.445213612995740027e-01 7.708509209951858177e-01 9.845579342625989661e-01 9.845579342625989661e-01
5.525000000000000355e+00 8.420663192713191414e-01 6.443109869758912867e-01 1.026620361026331363e+00 1.026620361026331363e+00
5.575000000000001066e+00 8.496762309753661535e-01 5.333166170008147855e-01 1.073764290874006599e+00 1.073764290874006599e+00
5.625000000000000888e+00 8.538270432653672914e-01 4.346400790051128671e-01 1.120987623181285864e+00 1.120987623181285864e+00
5.675000000000000711e+00 8.648742196895121692e-01 3.359228860618890256e-01 1.164009921059746544e+00 1.164009921059746544e+00
5.725000000000000533e+00 8.571282732393161741e-01 2.638515742141492315e-01 1.187905852531394357e+00 1.187905852531394357e+00
5.775000000000000355e+00 8.475864697157019512e-01 2.062981323837590475e-01 1.196907770411590688e+00 1.196907770411590688e+00
5.825000000000001066e+00 8.753784795054648793e-01 1.599370955681113371e-01 1.215403161147669886e+00 1.215403161147669886e+00
5.875000000000000888e+00 8.821020713018403736e-01 1.418928859069315263e-01 1.241815714866779441e+00 1.241815714866779441e+00
5.925000000000000711e+00 8.787560953360141758e-01 1.045354721091174277e-01 1.233801719677339426e+00 1.233801719677339426e+00
5.975000000000000533e+00 8.682492370651695435e-01 9.301057869756886032e-02 1.235023962447006518e+00 1.235023962447006518e+00
6.025000000000000355e+00 8.482736889266500047e-01 8.126020855360858997e-02 1.248765144835441321e+00 1.248765144835441321e+00
6.075000000000001066e+00 8.592634350095224027e-01 7.548764673880672960e-02 1.240778147215969796e+00 1.240778147215969796e+00
6.125000000000000888e+00 8.734348831294048709e-01 7.941619130856029940e-02 1.253365093217382098e+00 1.253365093217382098e+00
6.175000000000000711e+00 8.786523002997720377e-01 8.863319651809102584e-02 1.243612521256617365e+00 1.243612521256617365e+00
6.225000000000000533e+00 8.860165562722335242e-01 1.074589720048483438e-01 1.244340231631626104e+00 1.244340231631626104e+00
6.275000000000000355e+00 8.864855750521208888e-01 1.307247257600141210e-01 1.259146562578841833e+00 1.259146562578841833e+00
6.325000000000001066e+00 9.123474142938727827e-01 1.545201972832475623e-01 1.262922246939328641e+00 1.262922246939328641e+00
6.375000000000000888e+00 9.179234771873185927e-01 1.911073579539491474e-01 1.276406770921066913e+00 1.276406770921066913e+00
6.425000000000000711e+00 9.333034404608935297e-01 2.381905440406436036e-01 1.295600369060418977e+00 1.295600369060418977e+00
6.475000000000000533e+00 9.316326191365218445e-01 2.943110681404529361e-01 1.294859766916656385e+00 1.294859766916656385e+00
6.525000000000000355e+00 9.415766904211130273e-01 3.447147473375244964e-01 1.294746824202574587e+00 1.294746824202574587e+00
6.575000000000001066e+00 9.575746398783674396e-01 4.216460465685458736e-01 1.317977918739720700e+00 1.317977918739720700e+00
6.625000000000000888e+00 9.619052943761775554e-01 4.857575829570057180e-01 1.304341130799182569e+00 1.304341130799182569e+00
6.675000000000000711e+00 9.643109363232416076e-01 5.809501576611287854e-01 1.292651785679098220e+00 1.292651785679098220e+00
6.725000000000000533e+00 9.670735787980424547e-01 6.518242248249950244e-01 1.296817155942264321e+00 1.296817155942264321e+00
6.775000000000000355e+00 9.815313116324806408e-01 7.361192192249080835e-01 1.268177083768442071e+00 1.268177083768442071e+00
6.825000000000001066e+00 9.941942795315710235e-01 8.216896333963507049e-01 1.252259153865253216e+00 1.252259153865253216e+00
6.875000000000000888e+00 9.999067642319304783e-01 9.045313918819316568e-01 1.216377029783164421e+00 1.216377029783164421e+00
6.925000000000000711e+00 9.936988565404210050e-01 9.956595883015504356e-01 1.178819945244774292e+00 1.178819945244774292e+00
6.975000000000000533e+00 1.004904825727173767e+00 1.052946764312877592e+00 1.124733569096113550e+00 1.124733569096113550e+00
7.025000000000000355e+00 9.991977022602716030e-01 1.108453479347515813e+00 1.094844139899677549e+00 1.094844139899677549e+00
7.075000000000001066e+00 1.008793424916649917e+00 1.185423514371890086e+00 1.052991200263471594e+00 1.052991200263471594e+00
7.125000000000000888e+00 1.008496723552902541e+00 1.198003296835315368e+00 1.008946543679375640e+00 1.008946543679375640e+00
7.175000000000000711e+00 1.012650382876621569e+00 1.193367119588898628e+00 9.570733327470877239e-01 9.570733327470877239e-01
7.225000000000000533e+00 1.021584989882484029e+00 1.200220833705260004e+00 9.266830895629222242e-01 9.266830895629222242e-01
7.275000000000000355e+00 1.019519497514049799e+00 1.201342690946727298e+00 8.854870736561534228e-01 8.854870736561534228e-01
7.325000000000001066e+00 1.023723784229035649e+00 1.159062011206003273e+00 8.563159551881581733e-01 8.563159551881581733e-01
7.375000000000000888e+00 1.036364500684495482e+00 1.122703512561175510e+00 8.288643926216051616e-01 8.288643926216051616e-01
7.425000000000000711e+00 1.038729559270916480e+00 1.085120558540287439e+00 7.964925242204508038e-01 7.964925242204508038e-01
7.475000000000000533e+00 1.029447616621086414e+00 1.034592210286886971e+00 7.801031049309760101e-01 7.801031049309760101e-01
7.525000000000000355e+00 1.043709475173306922e+00 9.950324479662604471e-01 7.604006369989624314e-01 7.604006369989624314e-01
7.575000000000000178e+00 1.052075289727788077e+00 9.572194961721609552e-01 7.495293183771154499e-01 7.495293183771154499e-01
7.625000000000000000e+00 1.047702888481126582e+00 9.349110233147496229e-01 7.352957600952706452e-01 7.352957600952706452e-01
7.674999999999999822e+00 1.043719610319086444e+00 9.308419159542300481e-01 7.257921729787171206e-01 7.257921729787171206e-01
7.724999999999999645e+00 1.054427430598358972e+00 9.292755111609311003e-01 7.261962634694786312e-01 7.261962634694786312e-01
7.775000000000000355e+00 1.058463670178598992e+00 9.411380586712092544e-01 7.283742840152894749e-01 7.283742840152894749e-01
7.825000000000000178e+00 1.067137266774883519e+00 9.912767152473047627e-01 7.178891521655557106e-01 7.178891521655557106e-01
7.875000000000000000e+00 1.079534703526220385e+00 1.054062536364365643e+00 7.195887223223934592e-01 7.195887223223934592e-01
7.924999999999999822e+00 1.075751286381098071e+00 1.121862856889620064e+00 7.342134063019745138e-01 7.342134063019745138e-01
7.974999999999999645e+00 1.083255779803631969e+00 1.205837502283263030e+00 7.335683953971446902e-01 7.335683953971446902e-01
8.025000000000000355e+00 1.067212943000033665e+00 1.299360854808468524e+00 7.453554023786539418e-01 7.453554023786539418e-01
8.074999999999999289e+00 1.074143544224953839e+00 1.407951645000166785e+00 7.576397389725242348e-01 7.576397389725242348e-01
8.125000000000000000e+00 1.081555753836478839e+00 1.508895821226961642e+00 7.668395924076339965e-01 7.668395924076339965e-01
8.175000000000000711e+00 1.079702262751852215e+00 1.628658445042305836e+00 7.879587439342652377e-01 7.879587439342652377e-01
8.224999999999999645e+00 1.080077331293093135e+00 1.731229180738377726e+00 8.032077396401979819e-01 8.032077396401979819e-01
8.275000000000000355e+00 1.089505858396634608e+00 1.823637425638904297e+00 8.260941791285393299e-01 8.260941791285393299e-01
8.324999999999999289e+00 1.083357876551487742e+00 1.907931683264070033e+00 8.411645170018350326e-01 8.411645170018350326e-01
8.375000000000000000e+00 1.078963890712576479e+00 1.980896503367874706e+00 8.694909223665672204e-01 8.694909223665672204e-01
8.425000000000000711e+00 1.066800777382524101e+00 2.013621477269035953e+00 8.911264777933313175e-01 8.911264777933313175e-01
8.474999999999999645e+00 1.070894771533196010e+00 2.028607063283658363e+00 9.050671032857571241e-01 9.050671032857571241e-01
8.525000000000000355e+00 1.071344814205003493e+00 2.036671516232105184e+00 9.258101881086299167e-01 9.258101881086299167e-01
8.574999999999999289e+00 1.088920044607355697e+00 1.969036638170186038e+00 9.511426493512042946e-01 9.511426493512042946e-01
8.625000000000000000e+00 1.070733862261571190e+00 1.954073950322484876e+00 9.630429324742594277e-01 9.630429324742594277e-01
8.675000000000000711e+00 1.080595485995242022e+00 1.877530194596424229e+00 9.870474030401534815e-01 9.870474030401534815e-01
8.724999999999999645e+00 1.062211235125629871e+00 1.797525806874778365e+00 1.008128417828376477e+00 1.008128417828376477e+00
8.775000000000000355e+00 1.057642005457568590e+00 1.693818172493040786e+00 1.015059302163349164e+00 1.015059302163349164e+00
8.824999999999999289e+00 1.050969129278688241e+00 1.576746904197970478e+00 1.021372138668483309e+00 1.021372138668483309e+00
8.875000000000000000e+00 1.051848661169398458e+00 1.425942377428225383e+00 1.030684807145091142e+00 1.030684807145091142e+00
8.925000000000000711e+00 1.038949548170501780e+00 1.295440744854048809e+00 1.043300286417993883e+00 1.043300286417993883e+00
8.974999999999999645e+00 1.039279035754151037e+00 1.158745596714048531e+00 1.044748749879618188e+00 1.044748749879618188e+00
9.025000000000000355e+00 1.028422062008374827e+00 1.024233171633933903e+00 1.051296042123923469e+00 1.051296042123923469e+00
9.074999999999999289e+00 1.017642741421202590e+00 8.981522502740727498e-01 1.058418912301331671e+00 1.058418912301331671e+00
9.125000000000000000e+00 1.013554691265131646e+00 7.929950723217165098e-01 1.056789022655443944e+00 1.056789022655443944e+00
9.175000000000000711e+00 1.005856902029770072e+00 6.691989776845690407e-01 1.060796386033965977e+00 1.060796386033965977e+00
9.224999999999999645e+00 9.888900906517656964e-01 5.660271133403402821e-01 1.050512228144255600e+00 1.050512228144255600e+00
9.275000000000000355e+00 9.848463174870992765e-01 4.873952459735273468e-01 1.060967667654362234e+00 1.060967667654362234e+00
9.324999999999999289e+00 9.591128039921862358e-01 4.173333254840372319e-01 1.056463804036619214e+00 1.056463804036619214e+00
9.375000000000000000e+00 9.590882268450157122e-01 3.504766424133903824e-01 1.050451796021155904e+00 1.050451796021155904e+00
9.425000000000000711e+00 9.555322224848343815e-01 2.978345094803180881e-01 1.050964472146201478e+00 1.050964472146201478e+00
9.474999999999999645e+00 9.339829353559143676e-01 2.758468071548754730e-01 1.052889128481309999e+00 1.052889128481309999e+00
9.525000000000000355e+00 9.286447947364876443e-01 2.429915878195088585e-01 1.049207827859462316e+00 1.049207827859462316e+00
9.574999999999999289e+00 9.281140143420093525e-01 2.291201805367401589e-01 1.049677522329816926e+00 1.049677522329816926e+00
9.625000000000000000e+00 9.325320013679165854e-01 2.205400339087292272e-01 1.057751181699000398e+00 1.057751181699000398e+00
9.675000000000000711e+00 9.150544276426574308e-01 2.240639185963123614e-01 1.053878197880951717e+00 1.053878197880951717e+00
9.724999999999999645e+00 9.041069846362517204e-01 2.331566585991691198e-01 1.050255986645599382e+00 1.050255986645599382e+00
9.775000000000000355e+00 9.175712128155395497e-01 2.386500522254726420e-01 1.053372314635642404e+00 1.053372314635642404e+00
9.824999999999999289e+00 9.161597562799657091e-01 2.493633286633401003e-01 1.054868107848948577e+00 1.054868107848948577e+00
9.875000000000000000e+00 9.162449950994218106e-01 2.688291136622814603e-01 1.061872244004814281e+00 1.061872244004814281e+00
9.925000000000000711e+00 9.275456564867906595e-01 2.856273349128538031e-01 1.054404775015114870e+00 1.054404775015114870e+00
9.974999999999999645e+00 9.221852592852323172e-01 3.031830852441479429e-01 1.056402297022222214e+00 1.056402297022222214e+00
1.002500000000000036e+01 9.284066026430215501e-01 3.224068421432577103e-01 1.053094996240337311e+00 1.053094996240337311e+00
1.007499999999999929e+01 9.384293296000668638e-01 3.447550680365081832e-01 1.067123596322585133e+00 1.067123596322585133e+00
1.012500000000000000e+01 9.434922163870912426e-01 3.783088530334707822e-01 1.068861401266013589e+00 1.068861401266013589e+00
1.017500000000000071e+01 9.491889805614576181e-01 4.013533984620701878e-01 1.068139260418581094e+00 1.068139260418581094e+00
1.022499999999999964e+01 9.597144634574062971e-01 4.417631276810551344e-01 1.072493568121910101e+00 1.072493568121910101e+00
1.027500000000000036e+01 9.565294804073031232e-01 4.717504665408617237e-01 1.083328799398247222e+00 1.083328799398247222e+00
1.032499999999999929e+01 9.654320812694416887e-01 5.171651571864129826e-01 1.082135708739000224e+00 1.082135708739000224e+00
1.037500000000000000e+01 9.625134786658786634e-01 5.748625166371368334e-01 1.087129835439604397e+00 1.087129835439604397e+00
1.042500000000000071e+01 9.736469257910403963e-01 6.353374958535930039e-01 1.096885393053435909e+00 1.096885393053435909e+00
1.047499999999999964e+01 9.717438222022871663e-01 7.052359357684668817e-01 1.095400053753413427e+00 1.095400053753413427e+00
1.052500000000000036e+01 9.857420854387557441e-01 7.768121030037097308e-01 1.099156021928308080e+00 1.099156021928308080e+00
1.057499999999999929e+01 9.909526326264751495e-01 8.671616286040696453e-01 1.101266680845160550e+00 1.101266680845160550e+00
1.062500000000000000e+01 9.946890090602907852e-01 9.512823208808092179e-01 1.110690051566257219e+00 1.110690051566257219e+00
1.067500000000000071e+01 1.005973981580497334e+00 1.052346244282773791e+00 1.116741686871115524e+00 1.116741686871115524e+00
1.072499999999999964e+01 1.011050030810973777e+00 1.147541434633176483e+00 1.113208381310343276e+00 1.113208381310343276e+00
1.077500000000000036e+01 1.007403978703804714e+00 1.248263681348234844e+00 1.118867249684515564e+00 1.118867249684515564e+00
1.082499999999999929e+01 1.010407693292872056e+00 1.345842322095014199e+00 1.107351533624350237e+00 1.107351533624350237e+00
1.087500000000000000e+01 1.007271257096574057e+00 1.438442961822343769e+00 1.104938542511907595e+00 1.104938542511907595e+00
1.092500000000000071e+01 1.018442685215132704e+00 1.514575327545275352e+00 1.101825471419288993e+00 1.101825471419288993e+00
1.097499999999999964e+01 1.008448134982519617e+00 1.601330169841309603e+00 1.084738594700918934e+00 1.084738594700918934e+00
1.102500000000000036e+01 1.022374389495618097e+00 1.670096979775112844e+00 1.068722382118838743e+00 1.068722382118838743e+00
1.107499999999999929e+01 1.020523240992690317e+00 1.704288925479841010e+00 1.044605513082305981e+00 1.044605513082305981e+00
1.112500000000000000e+01 1.021789728881124626e+00 1.730636953114591980e+00 1.021442424998599607e+00 1.021442424998599607e+00
1.117500000000000071e+01 1.017851209204532204e+00 1.749454623048801061e+00 1.005320069808969929e+00 1.005320069808969929e+00
1.122499999999999964e+01 1.020338599117965428e+00 1.733136419766021064e+00 9.712672526365111469e-01 9.712672526365111469e-01
1.127500000000000036e+01 1.025172200852494608e+00 1.725491335977534568e+00 9.449416086046230623e-01 9.449416086046230623e-01
1.132499999999999929e+01 1.019072412880512646e+00 1.661671814379934498e+00 9.197018032999253467e-01 9.197018032999253467e-01
1.137500000000000000e+01 1.019455742255485298e+00 1.629945705382533028e+00 8.847463969244551141e-01 8.847463969244551141e-01
1.142500000000000071e+01 1.017776352013404217e+00 1.558102787665016864e+00 8.643411797366062910e-01 8.643411797366062910e-01
1.147499999999999964e+01 1.020127161102085900e+00 1.473859319817071523e+00 8.270170895054610449e-01 8.270170895054610449e-01
1.152500000000000036e+01 1.003689994973338218e+00 1.388689975916379993e+00 8.070335823277279275e-01 8.070335823277279275e-01
1.157499999999999929e+01 1.010397013698287161e+00 1.310167510915778655e+00 7.920257361098530513e-01 7.920257361098530513e-01
1.162500000000000000e+01 1.010471064128827923e+00 1.218131515356247307e+00 7.724149753438049881e-01 7.724149753438049881e-01
1.167500000000000071e+01 9.981883388097134713e-01 1.143782519060228875e+00 7.518292680040660203e-01 7.518292680040660203e-01
1.172499999999999964e+01 1.001496389181008029e+00 1.069267262323503109e+00 7.451767070663776193e-01 7.451767070663776193e-01
1.177500000000000036e+01 1.013935429996671855e+00 1.003104152781969960e+00 7.335719851699630256e-01 7.335719851699630256e-01
1.182500000000000107e+01 1.010912295902443470e+00 9.466459631621946258e-01 7.382462886529332913e-01 7.382462886529332913e-01
1.187500000000000000e+01 1.000359742065077162e+00 9.126289413983402765e-01 7.320711426319999049e-01 7.320711426319999049e-01
1.192500000000000071e+01 9.985062323281305163e-01 8.743305509209938764e-01 7.438544603020391666e-01 7.438544603020391666e-01
1.197499999999999964e+01 9.991404030625754551e-01 8.586327711911039273e-01 7.516034244068751091e-01 7.516034244068751091e-01
1.202500000000000036e+01 9.946203298975135887e-01 8.440756669077021934e-01 7.658771618448716456e-01 7.658771618448716456e-01
1.207500000000000107e+01 9.812412683282151216e-01 8.464967862085224226e-01 7.846797839506843841e-01 7.846797839506843841e-01
1.212500000000000000e+01 9.886247827036465097e-01 8.509142715771482735e-01 8.087203264880978848e-01 8.087203264880978848e-01
1.217500000000000071e+01 9.807569457988885020e-01 8.749677176392973710e-01 8.264862742048437738e-01 8.264862742048437738e-01
1.222499999999999964e+01 9.695690561902173821e-01 8.859628919552635651e-01 8.563744708994188715e-01 8.563744708994188715e-01
1.227500000000000036e+01 9.669283775103738598e-01 9.137598867627214627e-01 8.737052206109438002e-01 8.737052206109438002e-01
1.232500000000000107e+01 9.637326151073322134e-01 9.461886598436015650e-01 9.064406361992117800e-01 9.064406361992117800e-01
1.237500000000000000e+01 9.661178994061011549e-01 9.669774973337394997e-01 9.306901848170064939e-01 9.306901848170064939e-01
1.242500000000000071e+01 9.715485949259768939e-01 9.968509710145022629e-01 9.635611185679073820e-01 9.635611185679073820e-01
1.247499999999999964e+01 9.654334560587818359e-01 1.017480480162369139e+00 9.908700364954770023e-01 9.908700364954770023e-01
1.252500000000000036e+01 9.666116143128047344e-01 1.041893746275796229e+00 1.012164496710793227e+00 1.012164496710793227e+00
1.257500000000000107e+01 9.678424806446224160e-01 1.062319591213094938e+00 1.035332198632979983e+00 1.035332198632979983e+00
1.262500000000000000e+01 9.632591789799970217e-01 1.067220379609019165e+00 1.057157987135684873e+00 1.057157987135684873e+00
1.267500000000000071e+01 9.615105429865987707e-01 1.087746531247365755e+00 1.072245039511012354e+00 1.072245039511012354e+00
1.272499999999999964e+01 9.621321140599861099e-01 1.095043089310189677e+00 1.091185668046218415e+00 1.091185668046218415e+00
1.277500000000000036e+01 9.655129603396276350e-01 1.097714801413188113e+00 1.110036190784818189e+00 1.110036190784818189e+00
1.282500000000000107e+01 9.652022713800642029e-01 1.107906644836720078e+00 1.119119481322698562e+00 1.119119481322698562e+00
1.287500000000000000e+01 9.722575423127578498e-01 1.109868830535618356e+00 1.126926406893475008e+00 1.126926406893475008e+00
1.292500000000000071e+01 9.706838914764950310e-01 1.106315898446553980e+00 1.137940316481486525e+00 1.137940316481486525e+00
1.297499999999999964e+01 9.746589138531583929e-01 1.098763280030868650e+00 1.134421143760339312e+00 1.134421143760339312e+00
1.302500000000000036e+01 9.773567390493622664e-01 1.080240563051755531e+00 1.139909063719912741e+00 1.139909063719912741e+00
1.307500000000000107e+01 9.773447991809159907e-01 1.072717358572310209e+00 1.141657780066797967e+00 1.141657780066797967e+00
1.312500000000000000e+01 9.823575194035013558e-01 1.041213820751770269e+00 1.144352704950704513e+00 1.144352704950704513e+00
1.317500000000000071e+01 9.758904985173658675e-01 1.009630487840293300e+00 1.149512149996539501e+00 1.149512149996539501e+00
1.322499999999999964e+01 9.801683843497568382e-01 9.826413848806964113e-01 1.143801146188877516e+00 1.143801146188877516e+00
1.327500000000000036e+01 9.727072548173999467e-01 9.472485030457005184e-01 1.135650888537046654e+00 1.135650888537046654e+00
1.332500000000000107e+01 9.832448940481894883e-01 8.931574863914906182e-01 1.137372434877037986e+00 1.137372434877037986e+00
1.337500000000000000e+01 9.762827125878947854e-01 8.537536681170578845e-01 1.123793625606009039e+00 1.123793625606009039e+00
1.342500000000000071e+01 9.774609260236597486e-01 8.027477043092362541e-01 1.126349503371541161e+00 1.126349503371541161e+00
1.347499999999999964e+01 9.762127116490194600e-01 7.521927561007047958e-01 1.117333003308739858e+00 1.117333003308739858e+00
1.352500000000000036e+01 9.753233634252542750e-01 7.003500260752913986e-01 1.114440221730415015e+00 1.114440221730415015e+00
1.357500000000000107e+01 9.627870392977955216e-01 6.483162597227863921e-01 1.110182005543826289e+00 1.110182005543826289e+00
1.362500000000000000e+01 9.684108033351295219e-01 6.054195576306097282e-01 1.099414999473556476e+00 1.099414999473556476e+00
1.367500000000000071e+01 9.668299363865655582e-01 5.570549422485210345e-01 1.091619954847514951e+00 1.091619954847514951e+00
1.372499999999999964e+01 9.602976215194629628e-01 5.242096929411286244e-01 1.086119642249476547e+00 1.086119642249476547e+00
1.377500000000000036e+01 9.588464860020837754e-01 4.902117525742151760e-01 1.077498854083420721e+00 1.077498854083420721e+00
1.382500000000000107e+01 9.556904170793318887e-01 4.672329855590962588e-01 1.075130635327532058e+00 1.075130635327532058e+00
1.387500000000000000e+01 9.561412403737002963e-01 4.539497431200500421e-01 1.063935116510522416e+00 1.063935116510522416e+00
1.392500000000000071e+01 9.503124562965317157e-01 4.399997519654947897e-01 1.053662105197174403e+00 1.053662105197174403e+00
1.397499999999999964e+01 9.469222161381261049e-01 4.458119367619705620e-01 1.049320440620711503e+00 1.049320440620711503e+00
1.402500000000000036e+01 9.505489243849538639e-01 4.596703104889579561e-01 1.038560437363051259e+00 1.038560437363051259e+00
1.407500000000000107e+01 9.527577480731824755e-01 4.756940416885306333e-01 1.029764094379366446e+00 1.029764094379366446e+00
1.412500000000000000e+01 9.560964678487389179e-01 4.996396808111444043e-01 1.021941291843955213e+00 1.021941291843955213e+00
1.417500000000000071e+01 9.579204545178654495e-01 5.371146695357902345e-01 1.004616486165623712e+00 1.004616486165623712e+00
1.422499999999999964e+01 9.563229737089995464e-01 5.804904746495063161e-01 9.920767154063012683e-01 9.920767154063012683e-01
1.427500000000000036e+01 9.622258588035765836e-01 6.300756068826971479e-01 9.808214740426970391e-01 9.808214740426970391e-01
1.432500000000000107e+01 9.641087145363165245e-01 6.895860829522745261e-01 9.708444622567604654e-01 9.708444622567604654e-01
1.437500000000000000e+01 9.734046633845798713e-01 7.520900519838465970e-01 9.495479805483967306e-01 9.495479805483967306e-01
1.442500000000000071e+01 9.803926543414035466e-01 8.320846222031312855e-01 9.430993879679901992e-01 9.430993879679901992e-01
1.447499999999999964e+01 9.880431669266406258e-01 9.070984815192529860e-01 9.266134207224914210e-01 9.266134207224914210e-01
1.452500000000000036e+01 9.896950098676422503e-01 9.857093360804446425e-01 9.203595665088851741e-01 9.203595665088851741e-01
1.457500000000000107e+01 9.944752569472906645e-01 1.065561596782744314e+00 9.095219589852450159e-01 9.095219589852450159e-01
1.462500000000000000e+01 9.989912659690681762e-01 1.154700563950089798e+00 8.974605641678591317e-01 8.974605641678591317e-01
1.467500000000000071e+01 1.013078236339887805e+00 1.240705850900827523e+00 8.965012616003698032e-01 8.965012616003698032e-01
1.472499999999999964e+01 1.014573328965899579e+00 1.321070250729708073e+00 8.923375937651536471e-01 8.923375937651536471e-01
1.477500000000000036e+01 1.013551406543836242e+00 1.401427816304137375e+00 8.843946415068936195e-01 8.843946415068936195e-01
1.482500000000000107e+01 1.028300875637784495e+00 1.473485577871726404e+00 8.802360129755183449e-01 8.802360129755183449e-01
1.487500000000000000e+01 1.025151299861866594e+00 1.524280133209272137e+00 8.789361407583582420e-01 8.789361407583582420e-01
1.492500000000000071e+01 1.023431841930044106e+00 1.586253625917003252e+00 8.853223928691089650e-01 8.853223928691089650e-01
1.497499999999999964e+01 1.035812887279499162e+00 1.613619222621933025e+00 8.855000990407829731e-01 8.855000990407829731e-01
1.502500000000000036e+01 1.038391228691446289e+00 1.644870160900921308e+00 8.911419092303873857e-01 8.911419092303873857e-01
